<?xml version="1.0" standalone="no"?>
<!DOCTYPE svg PUBLIC "-//W3C//DTD SVG 1.1//EN" "http://www.w3.org/Graphics/SVG/1.1/DTD/svg11.dtd" >
<svg xmlns="http://www.w3.org/2000/svg">
<metadata>Generated by IcoMoon</metadata>
<defs>
<font id="icomoon" horiz-adv-x="1024">
<font-face units-per-em="1024" ascent="960" descent="-64" />
<missing-glyph horiz-adv-x="1024" />
<glyph unicode="&#x20;" horiz-adv-x="512" d="" />
<glyph unicode="&#xe900;" glyph-name="arrow-right-circle" d="M830.362 766.362c-91.853 91.853-214.016 142.438-343.962 142.438s-252.058-50.586-343.962-142.438-142.438-214.016-142.438-343.91 50.586-252.058 142.438-343.962 214.016-142.438 343.962-142.438 252.058 50.586 343.962 142.438 142.438 214.016 142.438 343.962-50.586 252.058-142.438 343.91zM486.4-12.8c-239.974 0-435.2 195.226-435.2 435.2s195.226 435.2 435.2 435.2c239.974 0 435.2-195.226 435.2-435.2s-195.226-435.2-435.2-435.2zM786.074 440.474l-204.8 204.8c-9.984 9.984-26.214 9.984-36.198 0s-9.984-26.214 0-36.198l161.126-161.075h-527.002c-14.131 0-25.6-11.469-25.6-25.6s11.469-25.6 25.6-25.6h527.002l-161.075-161.126c-9.984-9.984-9.984-26.214 0-36.198 5.018-5.018 11.571-7.475 18.074-7.475s13.107 2.509 18.074 7.526l204.8 204.8c9.984 9.984 9.984 26.214 0 36.198z" />
<glyph unicode="&#xe901;" glyph-name="scroll" horiz-adv-x="714" d="M704.893 444.428c0-55.725 0.476-111.568-0.238-167.293-0.238-16.67-3.334-33.34-5.715-50.009-3.572-24.052-10.716-47.152-20.242-69.656-10.24-24.29-22.385-47.39-38.221-68.465-8.93-11.907-18.575-23.219-28.339-34.411-19.289-22.147-42.032-40.246-66.679-56.082-28.577-18.456-59.297-32.149-92.041-41.317-21.671-6.073-43.46-10.716-65.965-11.669-17.146-0.714-34.411-2.024-51.557-0.953-37.269 2.262-73.347 10.597-108.115 24.528-27.624 11.073-52.986 25.957-77.038 43.222-8.573 6.192-16.67 13.098-24.29 20.48-12.264 11.907-24.886 23.576-35.483 36.912-12.74 16.313-24.171 33.816-35.007 51.557-12.621 20.837-22.385 43.103-28.696 66.679-4.763 17.741-8.216 35.84-11.788 53.939-4.406 22.385-3.691 45.127-3.572 67.751 0 100.376-0.238 200.871 0.238 301.247 0.119 16.67 2.62 33.459 5.834 49.89 3.453 18.218 7.978 36.316 13.812 53.939 10.597 31.911 26.433 61.321 46.556 88.35 14.050 18.932 29.529 36.554 47.152 52.391 25.719 23.1 54.058 42.151 85.254 56.915 26.076 12.383 53.224 21.194 81.682 26.433 19.289 3.572 38.698 5.477 58.344 5.953 24.647 0.476 49.057-1.429 73.347-5.834 35.483-6.549 68.822-18.694 100.495-35.84 20.361-11.073 39.293-24.29 57.153-39.174 32.982-27.386 59.178-60.13 80.134-97.161 15.836-28.1 27.267-57.987 34.173-89.302 3.691-17.027 6.906-34.649 7.263-52.033 1.31-52.867 1.072-105.853 1.548-158.72 0-7.62 0-14.884 0-22.266zM656.074 444.19c0 28.339 0.119 56.796 0 85.135-0.238 31.077 0 62.154-1.429 93.232-0.833 16.432-3.691 32.982-7.501 48.938-6.787 29.053-18.813 56.32-34.173 81.801-20.123 33.22-46.318 61.321-77.276 84.659-24.647 18.456-51.914 32.625-81.206 42.508-18.218 6.192-36.793 11.073-56.082 12.86-13.217 1.31-26.433 2.977-39.769 3.334-10.121 0.238-20.361-1.429-30.482-2.143-19.885-1.31-39.174-5.715-58.225-11.669-20.599-6.43-40.365-15.122-59.178-25.838-18.218-10.359-35.364-22.266-50.486-36.554-12.026-11.431-23.219-23.933-34.173-36.435-14.765-16.789-25.838-35.959-35.721-55.844-9.883-20.004-17.86-40.96-22.028-62.988-3.572-18.575-7.144-37.388-7.263-56.201-0.714-98.947-0.357-198.013-0.357-297.079 0-24.647 0.119-49.057 4.644-73.466 4.287-23.576 10.954-46.437 20.718-68.227 18.218-40.722 44.175-75.847 78.229-105.020 21.552-18.575 45.247-33.697 70.966-45.604 32.387-15.122 66.679-23.814 102.162-26.076 28.458-1.905 57.034-0.476 85.016 6.073 30.601 7.144 59.654 18.218 86.802 34.173 30.482 17.98 56.677 40.722 79.3 67.632 18.694 22.266 33.459 47.271 44.651 74.3 14.884 35.84 22.861 73.109 22.98 111.926 0 52.153-0.119 104.305-0.119 156.577zM406.028 611.126c0-17.027-0.238-34.173 0-51.2 0.357-22.504-21.671-43.937-44.175-44.294-15.241-0.238-28.22 3.572-38.579 14.646-7.859 8.454-12.621 18.456-12.621 30.482 0.238 33.697 0.357 67.393 0 101.090-0.238 21.433 19.527 42.984 42.151 44.651 26.076 1.905 41.674-10.954 49.414-27.386 2.381-4.882 3.453-10.835 3.691-16.313 0.357-17.146 0.119-34.411 0.119-51.676z" />
<glyph unicode="&#xe902;" glyph-name="chevron-up" d="M0 192c0-6.554 2.509-13.107 7.475-18.125 9.984-9.984 26.214-9.984 36.198 0l442.675 442.675 442.675-442.675c9.984-9.984 26.214-9.984 36.198 0s9.984 26.214 0 36.198l-460.8 460.8c-9.984 9.984-26.214 9.984-36.198 0l-460.8-460.8c-5.018-5.018-7.475-11.571-7.475-18.125z" />
<glyph unicode="&#xe903;" glyph-name="chevron-down" d="M0 652.8c0 6.554 2.509 13.107 7.475 18.125 9.984 9.984 26.214 9.984 36.198 0l442.675-442.675 442.675 442.675c9.984 9.984 26.214 9.984 36.198 0s9.984-26.214 0-36.198l-460.8-460.8c-9.984-9.984-26.214-9.984-36.198 0l-460.8 460.8c-5.018 5.018-7.475 11.571-7.475 18.125z" />
<glyph unicode="&#xe904;" glyph-name="chevron-left" d="M716.8-64c6.554 0 13.107 2.509 18.125 7.475 9.984 9.984 9.984 26.214 0 36.198l-442.675 442.675 442.675 442.675c9.984 9.984 9.984 26.214 0 36.198s-26.214 9.984-36.198 0l-460.8-460.8c-9.984-9.984-9.984-26.214 0-36.198l460.8-460.8c5.018-5.018 11.571-7.475 18.125-7.475z" />
<glyph unicode="&#xe905;" glyph-name="chevron-right" d="M256-64c-6.554 0-13.107 2.509-18.125 7.475-9.984 9.984-9.984 26.214 0 36.198l442.675 442.675-442.675 442.675c-9.984 9.984-9.984 26.214 0 36.198s26.214 9.984 36.198 0l460.8-460.8c9.984-9.984 9.984-26.214 0-36.198l-460.8-460.8c-5.018-5.018-11.571-7.475-18.125-7.475z" />
<glyph unicode="&#xe906;" glyph-name="lock" d="M742.4 550.4h-25.6v76.8c0 127.027-103.373 230.4-230.4 230.4s-230.4-103.373-230.4-230.4v-76.8h-25.6c-42.342 0-76.8-34.458-76.8-76.8v-409.6c0-42.342 34.458-76.8 76.8-76.8h512c42.342 0 76.8 34.458 76.8 76.8v409.6c0 42.342-34.458 76.8-76.8 76.8zM307.2 627.2c0 98.816 80.384 179.2 179.2 179.2s179.2-80.384 179.2-179.2v-76.8h-358.4v76.8zM768 64c0-14.131-11.469-25.6-25.6-25.6h-512c-14.131 0-25.6 11.469-25.6 25.6v409.6c0 14.131 11.469 25.6 25.6 25.6h512c14.131 0 25.6-11.469 25.6-25.6v-409.6z" />
<glyph unicode="&#xe907;" glyph-name="mailbox-full" d="M537.6 960h-204.8c-14.131 0-25.6-11.469-25.6-25.6v-286.003c-29.798-10.547-51.2-39.014-51.2-72.397 0-42.342 34.458-76.8 76.8-76.8s76.8 34.458 76.8 76.8c0 33.382-21.402 61.85-51.2 72.397v158.003h179.2c14.131 0 25.6 11.469 25.6 25.6v102.4c0 14.131-11.469 25.6-25.6 25.6zM332.8 550.4c-14.131 0-25.6 11.469-25.6 25.6s11.469 25.6 25.6 25.6 25.6-11.469 25.6-25.6-11.469-25.6-25.6-25.6zM512 857.6h-153.6v51.2h153.6v-51.2zM977.306 604.416c-18.125 46.899-41.882 83.354-70.656 108.442-32.154 28.058-70.656 42.291-114.381 42.291h-357.069c-14.131 0-25.6-11.469-25.6-25.6s11.469-25.6 25.6-25.6h357.069c142.848 0 177.613-216.883 180.326-409.6h-819.046v409.6h76.8c14.131 0 25.6 11.469 25.6 25.6s-11.469 25.6-25.6 25.6h-76.8v25.6c0 14.131-11.469 25.6-25.6 25.6h-102.4c-14.131 0-25.6-11.469-25.6-25.6v-563.2c0-14.131 11.469-25.6 25.6-25.6h102.4c14.131 0 25.6 11.469 25.6 25.6v25.6h256v-281.6c0-14.131 11.469-25.6 25.6-25.6h153.6c14.131 0 25.6 11.469 25.6 25.6v281.6h384c14.131 0 25.6 11.469 25.6 25.6 0 142.592-15.718 255.488-46.694 335.616zM102.4 243.2h-51.2v512h51.2v-512zM563.2-12.8h-102.4v256h102.4v-256z" />
<glyph unicode="&#xe908;" glyph-name="printer" d="M947.2 755.2h-76.8v128c0 42.342-34.458 76.8-76.8 76.8h-563.2c-42.342 0-76.8-34.458-76.8-76.8v-128h-76.8c-42.342 0-76.8-34.458-76.8-76.8v-460.8c0-42.342 34.458-76.8 76.8-76.8h76.8v-128c0-42.342 34.458-76.8 76.8-76.8h563.2c42.342 0 76.8 34.458 76.8 76.8v128h76.8c42.342 0 76.8 34.458 76.8 76.8v460.8c0 42.342-34.458 76.8-76.8 76.8zM204.8 883.2c0 14.131 11.469 25.6 25.6 25.6h563.2c14.131 0 25.6-11.469 25.6-25.6v-128h-614.4v128zM793.6-12.8h-563.2c-14.131 0-25.6 11.469-25.6 25.6v332.8h614.4v-332.8c0-14.131-11.469-25.6-25.6-25.6zM972.8 217.6c0-14.131-11.469-25.6-25.6-25.6h-76.8v153.6h25.6c14.131 0 25.6 11.469 25.6 25.6s-11.469 25.6-25.6 25.6h-768c-14.131 0-25.6-11.469-25.6-25.6s11.469-25.6 25.6-25.6h25.6v-153.6h-76.8c-14.131 0-25.6 11.469-25.6 25.6v460.8c0 14.131 11.469 25.6 25.6 25.6h870.4c14.131 0 25.6-11.469 25.6-25.6v-460.8zM742.4 243.2h-460.8c-14.131 0-25.6 11.469-25.6 25.6s11.469 25.6 25.6 25.6h460.8c14.131 0 25.6-11.469 25.6-25.6s-11.469-25.6-25.6-25.6zM742.4 140.8h-460.8c-14.131 0-25.6 11.469-25.6 25.6s11.469 25.6 25.6 25.6h460.8c14.131 0 25.6-11.469 25.6-25.6s-11.469-25.6-25.6-25.6zM742.4 38.4h-460.8c-14.131 0-25.6 11.469-25.6 25.6s11.469 25.6 25.6 25.6h460.8c14.131 0 25.6-11.469 25.6-25.6s-11.469-25.6-25.6-25.6zM844.8 499.2c-42.342 0-76.8 34.458-76.8 76.8s34.458 76.8 76.8 76.8 76.8-34.458 76.8-76.8-34.458-76.8-76.8-76.8zM844.8 601.6c-14.131 0-25.6-11.469-25.6-25.6s11.469-25.6 25.6-25.6 25.6 11.469 25.6 25.6-11.469 25.6-25.6 25.6z" />
<glyph unicode="&#xe909;" glyph-name="barcode" d="M0 806.4h51.2v-716.8h-51.2v716.8zM819.2 806.4h25.6v-716.8h-25.6v716.8zM179.2 806.4h25.6v-716.8h-25.6v716.8zM614.4 806.4h51.2v-716.8h-51.2v716.8zM102.4 806.4h51.2v-716.8h-51.2v716.8zM384 806.4h25.6v-716.8h-25.6v716.8zM307.2 806.4h51.2v-716.8h-51.2v716.8zM998.4 806.4h25.6v-716.8h-25.6v716.8zM870.4 806.4h51.2v-716.8h-51.2v716.8zM435.2 806.4h25.6v-716.8h-25.6v716.8zM512 806.4h51.2v-716.8h-51.2v716.8z" />
<glyph unicode="&#xe90a;" glyph-name="rocket" d="M691.2 499.2c-70.554 0-128 57.446-128 128s57.446 128 128 128 128-57.446 128-128-57.446-128-128-128zM691.2 704c-42.342 0-76.8-34.458-76.8-76.8s34.458-76.8 76.8-76.8 76.8 34.458 76.8 76.8-34.458 76.8-76.8 76.8zM25.6-64c-6.656 0-13.21 2.611-18.125 7.475-7.014 7.014-9.37 17.51-5.939 26.829 78.797 216.627 161.638 326.502 246.17 326.502 27.904 0 53.965-11.981 77.568-35.533 37.274-37.274 38.605-74.394 33.178-98.97-17.101-77.21-126.157-152.832-324.096-224.819-2.867-1.024-5.837-1.536-8.755-1.536zM247.757 245.658c-25.344 0-55.194-22.221-86.272-64.256-30.566-41.318-61.286-100.198-91.546-175.462 68.352 27.494 123.29 55.398 163.789 83.2 54.63 37.53 70.81 66.56 74.752 84.275s-2.406 34.662-19.405 51.661c-13.824 13.824-27.341 20.531-41.37 20.531zM998.4 960c-132.864 0-251.238-22.528-351.949-66.97-82.995-36.659-154.061-88.064-211.251-152.883-10.65-12.083-20.531-24.32-29.696-36.608-44.134-2.918-89.293-20.48-134.349-52.224-38.144-26.829-76.442-64-113.92-110.438-62.976-78.029-101.683-154.982-103.322-158.208-5.581-11.213-2.253-24.832 7.885-32.154 4.506-3.277 9.779-4.864 15.002-4.864 6.554 0 13.107 2.509 18.074 7.424 0.256 0.256 24.73 24.32 66.458 47.923 34.406 19.456 87.45 42.342 151.603 46.387 16.23-41.523 62.669-91.187 84.941-113.459s71.936-68.71 113.459-84.941c-4.045-64.154-26.931-117.197-46.387-151.603-23.654-41.779-47.667-66.202-47.872-66.406-8.858-8.858-9.984-22.886-2.662-33.075 4.966-6.861 12.749-10.65 20.787-10.65 3.891 0 7.782 0.87 11.418 2.714 3.226 1.638 80.179 40.346 158.208 103.322 46.438 37.478 83.61 75.776 110.438 113.92 31.744 45.107 49.254 90.214 52.224 134.349 12.237 9.114 24.474 18.995 36.608 29.696 64.819 57.19 116.224 128.256 152.883 211.251 44.442 100.659 66.97 219.085 66.97 351.949v25.6h-25.6zM159.078 457.83c48.794 70.81 123.392 158.618 207.462 186.214-33.229-58.214-50.432-111.667-56.627-145.562-59.341-3.635-110.49-20.89-150.835-40.653zM521.882 95.232c19.763 40.346 37.018 91.443 40.602 150.733 33.843 6.195 87.347 23.398 145.51 56.576-27.648-83.917-115.405-158.515-186.163-207.309zM770.253 409.6c-106.496-93.952-216.781-115.2-232.653-115.2-0.102 0-10.598 0.205-38.861 20.122-19.712 13.875-42.701 33.638-64.614 55.552s-41.677 44.902-55.552 64.614c-19.917 28.262-20.122 38.758-20.122 38.861 0 15.872 21.248 126.157 115.2 232.653 112.435 127.386 284.518 197.069 498.893 202.24-5.171-214.374-74.803-386.458-202.24-498.893z" />
<glyph unicode="&#xe90b;" glyph-name="select2" d="M281.6 192h-204.8c-42.342 0-76.8 34.458-76.8 76.8v614.4c0 42.342 34.458 76.8 76.8 76.8h716.8c42.342 0 76.8-34.458 76.8-76.8v-358.4c0-14.131-11.469-25.6-25.6-25.6s-25.6 11.469-25.6 25.6v358.4c0 14.131-11.469 25.6-25.6 25.6h-716.8c-14.131 0-25.6-11.469-25.6-25.6v-614.4c0-14.131 11.469-25.6 25.6-25.6h204.8c14.131 0 25.6-11.469 25.6-25.6s-11.469-25.6-25.6-25.6zM665.6-64c-10.138 0-19.763 6.093-23.757 16.077l-86.886 217.19-151.706-173.363c-7.014-8.038-18.278-10.854-28.262-7.117s-16.589 13.312-16.589 23.962v768c0 10.138 5.99 19.302 15.258 23.398s20.070 2.355 27.597-4.454l563.2-512c7.834-7.117 10.496-18.33 6.656-28.16s-13.312-16.384-23.859-16.384h-218.163l88.371-220.877c5.274-13.107-1.126-28.006-14.285-33.28l-128-51.2c-3.123-1.229-6.349-1.843-9.523-1.843zM563.2 243.2c1.434 0 2.867-0.102 4.301-0.358 8.806-1.485 16.128-7.475 19.456-15.718l92.877-232.243 80.486 32.205-92.877 232.243c-3.174 7.885-2.202 16.845 2.56 23.859s12.698 11.264 21.197 11.264h189.798l-471.398 428.544v-641.997l134.349 153.549c4.915 5.581 11.93 8.755 19.251 8.755z" />
<glyph unicode="&#xe90c;" glyph-name="2" horiz-adv-x="729" d="M727.26-62.073v219.114h-365.006l121.669 108.731c78.727 70.194 134.606 133.23 164.611 187.458 31.381 55.88 47.346 118.916 47.346 188.834 0 95.794-37.161 173.144-111.759 230.4-74.598 58.908-161.858 87.535-260.68 87.535-113.135 0-208.929-28.628-289.032-84.508v-257.652c84.508 70.194 171.768 105.978 262.056 105.978 84.508 0 141.763-44.318 141.763-113.135 0-72.946-41.566-133.23-167.363-246.090l-270.865-240.585v-186.082h727.26z" />
<glyph unicode="&#xe90d;" glyph-name="3" horiz-adv-x="729" d="M0 21.058c90.288-55.88 193.239-83.131 312.155-83.131s217.462 33.032 296.189 97.445c80.103 64.413 120.292 153.049 120.292 263.432 0 90.288-35.785 165.987-88.637 211.957s-101.574 71.57-153.049 84.508l194.615 171.768v192.963h-654.314v-216.086h336.378l-211.957-183.329v-167.363c45.695 22.847 98.822 34.409 157.454 34.409 98.822 0 160.206-54.503 160.206-128.826 0-84.508-72.946-134.606-170.391-134.606-100.198 0-200.396 31.381-299.217 95.794v-238.933z" />
<glyph unicode="&#xe90e;" glyph-name="1" horiz-adv-x="470" d="M468.114-64v1024h-228.149l-239.965-121.53v-252.905l209.301 96.492v-746.057z" />
<glyph unicode="&#xe90f;" glyph-name="cross" d="M548.198 422.4l289.075 289.075c9.984 9.984 9.984 26.214 0 36.198s-26.214 9.984-36.198 0l-289.075-289.075-289.075 289.075c-9.984 9.984-26.214 9.984-36.198 0s-9.984-26.214 0-36.198l289.075-289.075-289.075-289.075c-9.984-9.984-9.984-26.214 0-36.198 5.018-5.018 11.571-7.475 18.125-7.475s13.107 2.509 18.125 7.475l289.075 289.075 289.075-289.075c5.018-5.018 11.571-7.475 18.125-7.475s13.107 2.509 18.125 7.475c9.984 9.984 9.984 26.214 0 36.198l-289.075 289.075z" />
<glyph unicode="&#xe910;" glyph-name="menu" d="M896 652.8h-768c-14.131 0-25.6 11.469-25.6 25.6s11.469 25.6 25.6 25.6h768c14.131 0 25.6-11.469 25.6-25.6s-11.469-25.6-25.6-25.6zM896 396.8h-768c-14.131 0-25.6 11.469-25.6 25.6s11.469 25.6 25.6 25.6h768c14.131 0 25.6-11.469 25.6-25.6s-11.469-25.6-25.6-25.6zM896 140.8h-768c-14.131 0-25.6 11.469-25.6 25.6s11.469 25.6 25.6 25.6h768c14.131 0 25.6-11.469 25.6-25.6s-11.469-25.6-25.6-25.6z" />
<glyph unicode="&#xe911;" glyph-name="fingers-scroll-horizontal" d="M870.4 550.4c-21.094 0-40.653-6.4-56.986-17.357-14.029 39.885-52.019 68.557-96.614 68.557-18.637 0-36.147-5.018-51.2-13.773v269.773c0 56.474-45.926 102.4-102.4 102.4-44.595 0-82.637-28.672-96.614-68.557-16.282 10.957-35.891 17.357-56.986 17.357-56.474 0-102.4-45.926-102.4-102.4v-377.498l-68.915 119.45c-13.363 24.32-35.174 41.626-61.389 48.794-25.549 6.963-52.122 3.277-74.854-10.342-46.438-27.853-64.154-90.829-39.424-140.39 1.536-3.123 34.202-70.042 136.192-273.92 48.026-96 100.71-164.659 156.621-203.981 43.878-30.874 74.189-32.461 79.821-32.461h256c43.418 0 83.558 12.544 119.347 37.376 34.611 23.962 64.461 58.982 88.781 104.090 48.077 89.242 73.472 217.395 73.472 370.534 0 56.474-45.926 102.4-102.4 102.4zM854.272 101.734c-28.109-52.275-79.258-114.534-163.072-114.534h-255.488c-1.997 0.154-23.552 2.56-56.064 26.88-32.41 24.269-82.176 75.366-135.066 181.248-103.782 207.565-135.68 272.947-135.987 273.562-0.051 0.102-0.051 0.154-0.102 0.205-12.851 25.754-3.738 59.494 19.917 73.677 10.65 6.4 23.091 8.090 35.072 4.864 12.749-3.482 23.45-12.083 30.054-24.166 0.102-0.154 0.205-0.358 0.307-0.512l79.923-138.496c16.333-29.85 34.714-42.394 54.63-37.325 19.968 5.069 30.054 25.037 30.054 59.238v399.974c0 28.211 22.989 51.2 51.2 51.2s51.2-22.989 51.2-51.2v-332.8c0-14.131 11.469-25.6 25.6-25.6s25.6 11.469 25.6 25.6v384c0 28.211 22.989 51.2 51.2 51.2s51.2-22.989 51.2-51.2v-384c0-14.131 11.469-25.6 25.6-25.6s25.6 11.469 25.6 25.6v25.6c0 28.211 22.989 51.2 51.2 51.2s51.2-22.989 51.2-51.2v-76.8c0-14.131 11.469-25.6 25.6-25.6s25.6 11.469 25.6 25.6v25.6c0 28.211 22.989 51.2 51.2 51.2s51.2-22.989 51.2-51.2c0-144.691-23.296-264.448-67.328-346.266zM939.725 850.125l-102.4 102.4c-9.984 9.984-26.214 9.984-36.198 0s-9.984-26.214 0-36.198l58.675-58.675h-117.402c-14.131 0-25.6-11.469-25.6-25.6s11.469-25.6 25.6-25.6h117.402l-58.675-58.675c-9.984-9.984-9.984-26.214 0-36.198 5.018-5.018 11.571-7.475 18.125-7.475s13.107 2.509 18.125 7.475l102.4 102.4c9.984 9.984 9.984 26.214 0 36.198zM230.4 857.6h-117.402l58.675 58.675c9.984 9.984 9.984 26.214 0 36.198s-26.214 9.984-36.198 0l-102.4-102.4c-9.984-9.984-9.984-26.214 0-36.198l102.4-102.4c5.018-5.018 11.571-7.475 18.125-7.475s13.107 2.509 18.125 7.475c9.984 9.984 9.984 26.214 0 36.198l-58.675 58.675h117.402c14.131 0 25.6 11.469 25.6 25.6s-11.469 25.6-25.6 25.6z" />
<glyph unicode="&#xe912;" glyph-name="zoom-in" d="M966.093-21.094l-304.282 331.981c68.557 71.731 106.24 165.53 106.24 265.114 0 102.554-39.936 199.014-112.486 271.514s-168.96 112.486-271.514 112.486-199.014-39.936-271.514-112.486-112.486-168.96-112.486-271.514 39.936-199.014 112.486-271.514 168.96-112.486 271.514-112.486c88.371 0 172.134 29.645 240.026 84.224l304.282-331.93c5.069-5.53 11.93-8.294 18.893-8.294 6.195 0 12.39 2.202 17.306 6.707 10.445 9.574 11.11 25.754 1.587 36.147zM51.2 576c0 183.501 149.299 332.8 332.8 332.8s332.8-149.299 332.8-332.8-149.299-332.8-332.8-332.8-332.8 149.299-332.8 332.8zM588.8 601.6h-179.2v179.2c0 14.131-11.469 25.6-25.6 25.6s-25.6-11.469-25.6-25.6v-179.2h-179.2c-14.131 0-25.6-11.469-25.6-25.6s11.469-25.6 25.6-25.6h179.2v-179.2c0-14.131 11.469-25.6 25.6-25.6s25.6 11.469 25.6 25.6v179.2h179.2c14.131 0 25.6 11.469 25.6 25.6s-11.469 25.6-25.6 25.6z" />
<glyph unicode="&#xe913;" glyph-name="tick" d="M724.139 693.291c-41.259 22.955-93.227 8.021-116.053-33.152l-158.421-285.099-90.667 90.667c-33.323 33.323-87.339 33.323-120.661 0s-33.323-87.339 0-120.661l170.667-170.667c16.128-16.171 37.888-25.045 60.331-25.045 3.925 0 7.893 0.256 11.819 0.853 26.496 3.712 49.749 19.627 62.763 43.051l213.333 384c22.912 41.216 8.064 93.141-33.109 116.053z" />
<glyph unicode="&#xe914;" glyph-name="telephone" d="M819.2-64c-90.675 0-187.136 25.702-286.72 76.39-91.802 46.746-182.477 113.664-262.246 193.536s-146.586 170.65-193.28 262.502c-50.586 99.635-76.288 196.096-76.288 286.771 0 58.778 54.784 115.558 78.285 137.216 33.843 31.181 87.091 67.584 125.798 67.584 19.251 0 41.779-12.595 71.014-39.629 21.76-20.173 46.285-47.514 70.81-79.053 14.797-19.046 88.576-116.275 88.576-162.918 0-38.246-43.264-64.87-89.037-92.979-17.715-10.854-35.994-22.118-49.203-32.717-14.131-11.315-16.64-17.306-17.050-18.637 48.589-121.139 197.12-269.67 318.208-318.208 1.075 0.358 7.066 2.714 18.586 17.050 10.598 13.21 21.862 31.539 32.717 49.203 28.16 45.773 54.733 89.037 92.979 89.037 46.643 0 143.872-73.779 162.918-88.576 31.539-24.525 58.88-49.050 79.053-70.81 27.034-29.184 39.629-51.763 39.629-71.014 0-38.707-36.403-92.109-67.533-126.106-21.709-23.654-78.49-78.694-137.267-78.694zM204.493 908.8c-13.722-0.256-50.637-17.050-90.778-54.016-38.093-35.123-61.798-73.267-61.798-99.584 0-344.525 423.117-768 767.283-768 26.266 0 64.41 23.808 99.533 62.106 37.018 40.346 53.811 77.414 54.067 91.187-1.638 9.728-28.57 47.565-102.246 104.294-63.334 48.742-114.688 74.906-127.898 75.213-0.922-0.256-6.656-2.458-18.278-17.203-10.086-12.851-20.89-30.413-31.386-47.411-28.672-46.643-55.757-90.726-95.13-90.726-6.349 0-12.595 1.229-18.586 3.635-134.4 53.76-293.325 212.685-347.085 347.085-6.451 16.128-7.475 41.421 24.269 70.195 16.896 15.309 40.243 29.645 62.874 43.571 16.998 10.445 34.611 21.248 47.411 31.386 14.746 11.622 16.947 17.357 17.203 18.278-0.358 13.21-26.47 64.563-75.213 127.898-56.73 73.677-94.566 100.557-104.294 102.246z" />
<glyph unicode="&#xe915;" glyph-name="map-marker" d="M512-64c-7.834 0-15.258 3.584-20.122 9.779-2.918 3.738-72.602 92.877-143.206 224.512-41.574 77.466-74.752 153.549-98.56 226.099-30.054 91.494-45.261 177.766-45.261 256.41 0 169.37 137.83 307.2 307.2 307.2s307.2-137.83 307.2-307.2c0-78.643-15.258-164.864-45.261-256.41-23.808-72.55-56.986-148.634-98.56-226.099-70.656-131.635-140.288-220.774-143.206-224.512-4.864-6.195-12.288-9.779-20.122-9.779zM512 908.8c-141.158 0-256-114.842-256-256 0-166.605 74.906-341.197 137.779-458.291 46.182-86.067 92.621-154.317 118.221-189.952 25.702 35.789 72.448 104.448 118.682 190.771 62.618 116.89 137.318 291.174 137.318 457.472 0 141.158-114.842 256-256 256zM512 499.2c-84.685 0-153.6 68.915-153.6 153.6s68.915 153.6 153.6 153.6 153.6-68.915 153.6-153.6-68.915-153.6-153.6-153.6zM512 755.2c-56.474 0-102.4-45.926-102.4-102.4s45.926-102.4 102.4-102.4c56.474 0 102.4 45.926 102.4 102.4s-45.926 102.4-102.4 102.4z" />
<glyph unicode="&#xf08c;" glyph-name="linkedin-square" horiz-adv-x="878" d="M135.429 152h132v396.571h-132v-396.571zM276 670.857c-0.571 38.857-28.571 68.571-73.714 68.571s-74.857-29.714-74.857-68.571c0-37.714 28.571-68.571 73.143-68.571h0.571c46.286 0 74.857 30.857 74.857 68.571zM610.286 152h132v227.429c0 121.714-65.143 178.286-152 178.286-70.857 0-102.286-39.429-119.429-66.857h1.143v57.714h-132s1.714-37.143 0-396.571v0h132v221.714c0 11.429 0.571 23.429 4 32 9.714 23.429 31.429 48 68 48 47.429 0 66.286-36 66.286-89.714v-212zM877.714 722.286v-548.571c0-90.857-73.714-164.571-164.571-164.571h-548.571c-90.857 0-164.571 73.714-164.571 164.571v548.571c0 90.857 73.714 164.571 164.571 164.571h548.571c90.857 0 164.571-73.714 164.571-164.571z" />
<glyph unicode="&#xf099;" glyph-name="twitter" horiz-adv-x="951" d="M925.714 726.857c-25.143-36.571-56.571-69.143-92.571-95.429 0.571-8 0.571-16 0.571-24 0-244-185.714-525.143-525.143-525.143-104.571 0-201.714 30.286-283.429 82.857 14.857-1.714 29.143-2.286 44.571-2.286 86.286 0 165.714 29.143 229.143 78.857-81.143 1.714-149.143 54.857-172.571 128 11.429-1.714 22.857-2.857 34.857-2.857 16.571 0 33.143 2.286 48.571 6.286-84.571 17.143-148 91.429-148 181.143v2.286c24.571-13.714 53.143-22.286 83.429-23.429-49.714 33.143-82.286 89.714-82.286 153.714 0 34.286 9.143 65.714 25.143 93.143 90.857-112 227.429-185.143 380.571-193.143-2.857 13.714-4.571 28-4.571 42.286 0 101.714 82.286 184.571 184.571 184.571 53.143 0 101.143-22.286 134.857-58.286 41.714 8 81.714 23.429 117.143 44.571-13.714-42.857-42.857-78.857-81.143-101.714 37.143 4 73.143 14.286 106.286 28.571z" />
<glyph unicode="&#xf09a;" glyph-name="facebook, facebook-f" horiz-adv-x="602" d="M548 953.143v-150.857h-89.714c-70.286 0-83.429-33.714-83.429-82.286v-108h167.429l-22.286-169.143h-145.143v-433.714h-174.857v433.714h-145.714v169.143h145.714v124.571c0 144.571 88.571 223.429 217.714 223.429 61.714 0 114.857-4.571 130.286-6.857z" />
<glyph unicode="&#xf173;" glyph-name="tumblr" horiz-adv-x="624" d="M539.429 200.571l45.714-135.429c-17.143-25.714-94.857-54.857-164.571-56-207.429-3.429-285.714 147.429-285.714 253.714v310.857h-96v122.857c144 52 178.857 182.286 186.857 256.571 0.571 4.571 4.571 6.857 6.857 6.857h139.429v-242.286h190.286v-144h-190.857v-296c0-40 14.857-95.429 91.429-93.714 25.143 0.571 58.857 8 76.571 16.571z" />
<glyph unicode="&#xf1e9;" glyph-name="yelp" horiz-adv-x="875" d="M441.714 206.286v-72.571c-0.571-161.143-0.571-166.857-3.429-174.286-4.571-12-14.857-20-29.143-22.857-41.143-6.857-169.714 40.571-196.571 72.571-5.714 6.286-8.571 13.714-9.714 20.571-0.571 5.143 0.571 10.286 2.286 14.857 2.857 8 8 14.286 122.857 150.286 0 0 0.571 0 34.286 40 11.429 14.286 32 18.857 50.857 12 18.857-7.429 29.143-23.429 28.571-40.571zM356.571 349.714c-1.143-20-12.571-34.857-29.714-40l-68.571-22.286c-153.714-49.143-158.857-50.286-166.857-50.286-12.571 0.571-24 8-30.857 20.571-4.571 9.143-8 24.571-9.714 42.857-6.286 56 1.143 140 17.714 166.286 8 12.571 19.429 18.857 32 18.286 8.571 0 15.429-3.429 181.143-70.857 0 0-0.571-0.571 48-19.429 17.143-6.857 28-24.571 26.857-45.143zM828.571 180c-5.714-41.143-90.857-149.143-129.714-164.571-13.143-5.143-26.286-4-36 4-6.857 5.143-13.714 15.429-105.143 164l-26.857 44c-10.286 16-8.571 36.571 4.571 52.571 12.571 15.429 30.857 20.571 47.429 14.857 0 0 0.571-0.571 68-22.857 153.714-50.286 158.857-52 165.143-57.143 10.286-8 14.857-20 12.571-34.857zM444.571 541.143c2.857-59.429-22.286-66.857-30.857-69.714-8-2.286-33.143-9.714-65.143 40.571-210.286 332-216 341.714-216 341.714-2.857 12 0.571 25.143 10.857 35.429 31.429 32.571 202.286 80.571 246.857 69.143 14.286-3.429 24.571-12.571 28-25.714 2.286-14.286 22.857-322.286 26.286-391.429zM822.857 479.429c1.143-14.286-4-26.286-14.857-33.714-6.857-4.571-13.714-6.857-188-49.143-28-6.286-43.429-10.286-52-13.143l0.571 1.143c-17.143-4.571-36.571 3.429-47.429 20.571s-10.286 36 0 49.714c0 0 0.571 0.571 42.857 58.286 93.714 128 98.286 134.286 105.143 138.857 10.857 7.429 24 7.429 37.143 1.143 37.143-17.714 112-129.143 116.571-172v-1.714z" />
</font></defs></svg>