<?xml version="1.0" encoding="UTF-8" standalone="no"?>
<svg
   xmlns:dc="http://purl.org/dc/elements/1.1/"
   xmlns:cc="http://creativecommons.org/ns#"
   xmlns:rdf="http://www.w3.org/1999/02/22-rdf-syntax-ns#"
   xmlns:svg="http://www.w3.org/2000/svg"
   xmlns="http://www.w3.org/2000/svg"
   viewBox="0 0 30 30"
   height="18"
   width="18"
   xml:space="preserve"
   version="1.1"
   id="svg2"><metadata
     id="metadata8"><rdf:RDF><cc:Work
         rdf:about=""><dc:format>image/svg+xml</dc:format><dc:type
           rdf:resource="http://purl.org/dc/dcmitype/StillImage" /></cc:Work></rdf:RDF></metadata><defs
     id="defs6"><clipPath
       id="clipPath16"
       clipPathUnits="userSpaceOnUse"><path
         id="path18"
         d="M 0,24 24,24 24,0 0,0 0,24 Z" /></clipPath></defs><g
     transform="matrix(1.25,0,0,-1.25,0,30)"
     id="g10"><g
       id="g12"><g
         clip-path="url(#clipPath16)"
         id="g14"><g
           transform="translate(21.769,7.15)"
           id="g20"><path
             id="path22"
             style="fill:#cfd6dd;fill-opacity:1;fill-rule:nonzero;stroke:none"
             d="m 0,0 c -0.149,-3.225 -1.664,-4.771 -4.919,-4.919 -1.266,-0.058 -1.644,-0.07 -4.85,-0.07 -3.204,0 -3.584,0.012 -4.849,0.07 -3.26,0.149 -4.771,1.699 -4.919,4.92 -0.058,1.265 -0.07,1.644 -0.07,4.849 0,3.204 0.013,3.583 0.07,4.849 0.149,3.227 1.664,4.771 4.919,4.919 1.266,0.057 1.645,0.069 4.849,0.069 3.204,0 3.584,-0.012 4.85,-0.07 C -1.667,14.469 -0.148,12.926 0,9.698 0.058,8.433 0.069,8.053 0.069,4.849 0.069,1.644 0.057,1.265 0,0 m 2.159,9.797 c -0.196,4.354 -2.617,6.78 -6.979,6.98 -1.281,0.059 -1.69,0.073 -4.949,0.073 -3.259,0 -3.667,-0.014 -4.947,-0.072 -4.358,-0.2 -6.78,-2.618 -6.98,-6.98 -0.059,-1.281 -0.073,-1.689 -0.073,-4.948 0,-3.259 0.014,-3.668 0.072,-4.948 0.2,-4.358 2.618,-6.78 6.98,-6.98 1.281,-0.058 1.689,-0.072 4.948,-0.072 3.259,0 3.668,0.014 4.948,0.072 4.354,0.2 6.782,2.618 6.979,6.98 0.059,1.28 0.073,1.689 0.073,4.948 0,3.259 -0.014,3.667 -0.072,4.947" /></g><g
           transform="translate(9.6003,0.7659)"
           id="g24"><path
             id="path26"
             style="fill:#cfd6dd;fill-opacity:1;fill-rule:nonzero;stroke:none"
             d="m 0,0 0,9 -2.25,0 0,1.801 2.25,0 0,3.138 c 0,2.006 0.985,2.862 3.294,2.862 l 2.256,0 0,-2.551 -1.564,0 C 2.55,14.25 2.55,13.089 2.55,12.651 l 0,-1.85 2.944,0 L 5.333,9 2.55,9 2.55,0 0,0 Z" /></g></g></g></g></svg>
